…
``` r
# locals in home grid with their visited grids outside home 
locals_out_grids[1, ]$data[[1]]
```

    ## Simple feature collection with 923 features and 2 fields
    ## Geometry type: POLYGON
    ## Dimension:     XY
    ## Bounding box:  xmin: 7917.538 ymin: 24408.98 xmax: 46167.54 ymax: 48657.69
    ## Projected CRS: SVY21 / Singapore TM
    ## # A tibble: 923 × 3
    ##        u_id out_to_grid                                                 geometry
    ##       <dbl>       <dbl>                                            <POLYGON [m]>
    ##  1 81473111         613 ((18042.54 39347.91, 17667.54 39564.42, 17667.54 39997.…
    ##  2 81473111        1187 ((29292.54 28955.61, 28917.54 29172.11, 28917.54 29605.…
    ##  3 81473111        1210 ((29667.54 30904.17, 29292.54 31120.67, 29292.54 31553.…
    ##  4 81473111        1216 ((29667.54 38698.39, 29292.54 38914.9, 29292.54 39347.9…
    ##  5 81473111         579 ((17292.54 39347.91, 16917.54 39564.42, 16917.54 39997.…
    ##  6 81473111        1233 ((30042.54 31553.68, 29667.54 31770.19, 29667.54 32203.…
    ##  7 81473111        1271 ((30792.54 30254.65, 30417.54 30471.15, 30417.54 30904.…
    ##  8 81473111         715 ((20292.54 31553.68, 19917.54 31770.19, 19917.54 32203.…
    ##  9 81473111        1125 ((28167.54 30904.17, 27792.54 31120.67, 27792.54 31553.…
    ## 10 81473111        1709 ((45417.54 37399.36, 45042.54 37615.86, 45042.54 38048.…
    ## # … with 913 more rows
…
